[
  "-99.18698,19.333826",
  "-99.187419,19.333781",
  "-99.190418,19.332808",
  "-99.188367,19.333066",
  "-99.186348,19.330101",
  "-99.186507,19.330089",
  "-99.186584,19.330495",
  "-99.186616,19.330765",
  "-99.186746,19.332027",
  "-99.186388,19.332053",
  "-99.186089,19.332083",
  "-99.184036,19.332287",
  "-99.183903,19.331278",
  "-99.189137,19.33449",
  "-99.189111,19.334487",
  "-99.189046,19.33446",
  "-99.189,19.334392",
  "-99.18891,19.334365",
  "-99.188758,19.33427",
  "-99.18867,19.334181",
  "-99.180925,19.334984",
  "-99.180933,19.334934",
  "-99.183568,19.332333",
  "-99.182936,19.32738",
  "-99.182826,19.327388",
  "-99.182667,19.327371",
  "-99.18237,19.327406",
  "-99.181669,19.327485",
  "-99.181734,19.327961",
  "-99.181682,19.327965",
  "-99.18349,19.328446",
  "-99.183697,19.328207",
  "-99.180499,19.326348",
  "-99.180461,19.326313",
  "-99.177497,19.331169",
  "-99.177415,19.331054",
  "-99.177389,19.33099",
  "-99.177399,19.33094",
  "-99.17749,19.330848",
  "-99.177476,19.330755",
  "-99.177411,19.330245",
  "-99.177645,19.326771",
  "-99.177707,19.327278",
  "-99.183064,19.324688",
  "-99.182952,19.32459",
  "-99.182832,19.324491",
  "-99.182763,19.324441",
  "-99.182774,19.324343",
  "-99.18279,19.324254",
  "-99.182781,19.324161",
  "-99.182768,19.324099",
  "-99.182627,19.323958",
  "-99.17882,19.322572",
  "-99.178955,19.32281",
  "-99.179024,19.322941",
  "-99.179078,19.323091",
  "-99.179123,19.323162",
  "-99.179214,19.32316",
  "-99.17926,19.323183",
  "-99.179293,19.323238",
  "-99.179272,19.323297",
  "-99.179258,19.323328",
  "-99.179301,19.32354",
  "-99.17926,19.323587",
  "-99.179369,19.323679",
  "-99.183907,19.334249",
  "-99.182877,19.334364",
  "-99.180861,19.328645",
  "-99.18086,19.328679",
  "-99.18083,19.328719",
  "-99.180786,19.328804",
  "-99.180755,19.328895",
  "-99.180731,19.328993",
  "-99.18071,19.329294",
  "-99.181228,19.329499",
  "-99.1811,19.329688",
  "-99.180986,19.329792",
  "-99.180669,19.329778",
  "-99.17873,19.330263",
  "-99.178851,19.330248",
  "-99.178886,19.330237",
  "-99.178951,19.330219",
  "-99.179106,19.330188",
  "-99.17925,19.330178",
  "-99.17964,19.330151",
  "-99.179731,19.330159",
  "-99.179811,19.330169",
  "-99.179859,19.330185",
  "-99.181011,19.328624",
  "-99.177745,19.327583",
  "-99.177789,19.328105",
  "-99.177845,19.328103",
  "-99.188636,19.33038",
  "-99.188654,19.330269",
  "-99.188605,19.330208",
  "-99.188531,19.33018",
  "-99.188484,19.33016",
  "-99.188454,19.330135",
  "-99.188352,19.330054",
  "-99.193032,19.329987",
  "-99.192842,19.329915",
  "-99.192822,19.329816",
  "-99.1929,19.329684",
  "-99.193085,19.329402",
  "-99.18351,19.326766",
  "-99.183514,19.326682",
  "-99.183396,19.326636",
  "-99.183379,19.326522",
  "-99.183394,19.326396",
  "-99.183399,19.326279",
  "-99.183391,19.326181",
  "-99.183372,19.32615",
  "-99.183325,19.326122",
  "-99.183303,19.326085",
  "-99.183295,19.325826",
  "-99.183327,19.325762",
  "-99.18338,19.325697",
  "-99.183296,19.324978",
  "-99.183281,19.324941",
  "-99.183248,19.324885",
  "-99.1832,19.324835",
  "-99.183143,19.324802",
  "-99.183006,19.324751",
  "-99.182998,19.32475",
  "-99.178253,19.333384",
  "-99.178202,19.333432",
  "-99.1781,19.333421",
  "-99.177989,19.333455",
  "-99.177385,19.333733",
  "-99.177275,19.333796",
  "-99.1772,19.333859",
  "-99.177129,19.333929",
  "-99.17707,19.333996",
  "-99.178362,19.334456",
  "-99.178467,19.334198",
  "-99.179312,19.334482",
  "-99.179678,19.334606",
  "-99.183269,19.33203",
  "-99.18243,19.332128",
  "-99.183867,19.331004",
  "-99.183622,19.331052",
  "-99.17716,19.328255",
  "-99.176741,19.328307",
  "-99.188938,19.334725",
  "-99.188948,19.334765",
  "-99.189022,19.335115",
  "-99.18903,19.335152",
  "-99.18586,19.334876",
  "-99.18592,19.335211",
  "-99.187929,19.325526",
  "-99.187727,19.325568",
  "-99.18063,19.329311",
  "-99.180532,19.329321",
  "-99.180422,19.329304",
  "-99.18037,19.329271",
  "-99.180319,19.329228",
  "-99.180257,19.329183",
  "-99.177344,19.329716",
  "-99.177529,19.329689",
  "-99.177592,19.329694",
  "-99.17767,19.329742",
  "-99.177777,19.329801",
  "-99.177849,19.32984",
  "-99.177908,19.32986",
  "-99.17804,19.329882",
  "-99.17814,19.329902",
  "-99.178226,19.329976",
  "-99.178377,19.330071",
  "-99.178438,19.330109",
  "-99.176346,19.323199",
  "-99.176339,19.323208",
  "-99.17625,19.323222",
  "-99.191543,19.333509",
  "-99.191444,19.334139",
  "-99.191247,19.33416",
  "-99.191154,19.334237",
  "-99.191141,19.33425",
  "-99.19457,19.33203",
  "-99.195198,19.331979",
  "-99.195195,19.332019",
  "-99.19028,19.331397",
  "-99.190301,19.331513",
  "-99.190331,19.331627",
  "-99.190309,19.331795",
  "-99.190301,19.331991",
  "-99.190315,19.332153",
  "-99.190343,19.332315",
  "-99.190385,19.332469",
  "-99.19045,19.332625",
  "-99.190469,19.332697",
  "-99.178373,19.333366",
  "-99.17837,19.333292",
  "-99.178623,19.33324",
  "-99.178813,19.333254",
  "-99.182874,19.330045",
  "-99.182941,19.329984",
  "-99.182977,19.329947",
  "-99.182851,19.330309",
  "-99.183267,19.330265",
  "-99.183959,19.330515",
  "-99.183931,19.33031",
  "-99.183709,19.330332",
  "-99.181714,19.330861",
  "-99.181719,19.330939",
  "-99.181456,19.330953",
  "-99.181615,19.33055",
  "-99.181611,19.330479",
  "-99.181411,19.330493",
  "-99.183484,19.330789",
  "-99.18347,19.330825",
  "-99.183475,19.33086",
  "-99.18351,19.3309",
  "-99.194916,19.324508",
  "-99.194248,19.324509",
  "-99.183956,19.322969",
  "-99.18399,19.323078",
  "-99.184274,19.323243",
  "-99.184327,19.323274",
  "-99.184588,19.323715",
  "-99.175447,19.328734",
  "-99.175357,19.328743",
  "-99.175132,19.328554",
  "-99.17507,19.328505",
  "-99.175033,19.328457",
  "-99.17499,19.328275",
  "-99.174866,19.328295",
  "-99.184074,19.334052",
  "-99.183879,19.334076",
  "-99.182244,19.335447",
  "-99.182323,19.335232",
  "-99.182303,19.335025",
  "-99.186181,19.327447",
  "-99.186067,19.326726",
  "-99.186264,19.329417",
  "-99.185741,19.32947",
  "-99.19233,19.32282",
  "-99.192424,19.322862",
  "-99.192723,19.323365",
  "-99.192782,19.323447",
  "-99.184647,19.324378",
  "-99.190239,19.334466",
  "-99.190405,19.33451",
  "-99.184799,19.334995",
  "-99.184737,19.3346",
  "-99.188115,19.326893",
  "-99.188059,19.326901",
  "-99.18804,19.327006",
  "-99.187979,19.327086",
  "-99.18781,19.327167",
  "-99.194912,19.322833",
  "-99.194744,19.322861",
  "-99.194508,19.322894",
  "-99.194354,19.322891",
  "-99.191144,19.324203",
  "-99.191196,19.324364",
  "-99.187503,19.331716",
  "-99.187507,19.331786",
  "-99.187435,19.331797",
  "-99.187582,19.332953",
  "-99.175342,19.324602",
  "-99.175599,19.324913",
  "-99.186745,19.323298",
  "-99.186741,19.323355",
  "-99.186792,19.323415",
  "-99.18679,19.323694",
  "-99.184829,19.335193",
  "-99.184858,19.335386",
  "-99.19088,19.333396",
  "-99.190791,19.333274",
  "-99.19068,19.333146",
  "-99.190556,19.332993",
  "-99.190467,19.332885",
  "-99.18954,19.334551",
  "-99.193163,19.330016",
  "-99.193369,19.330303",
  "-99.193387,19.330324",
  "-99.19479,19.330178",
  "-99.194625,19.330047",
  "-99.19428,19.329779",
  "-99.194075,19.329659",
  "-99.193886,19.329545",
  "-99.193225,19.329185",
  "-99.181433,19.330714",
  "-99.189422,19.324191",
  "-99.18946,19.324589",
  "-99.189445,19.324786",
  "-99.189412,19.324866",
  "-99.189378,19.3249",
  "-99.189258,19.324996",
  "-99.189063,19.325075",
  "-99.188772,19.325105",
  "-99.18839,19.325139",
  "-99.188224,19.325193",
  "-99.188033,19.325342",
  "-99.18801,19.325368",
  "-99.187905,19.32538",
  "-99.187987,19.32374",
  "-99.188004,19.323727",
  "-99.188078,19.323741",
  "-99.188149,19.323697",
  "-99.188209,19.323662",
  "-99.188376,19.323656",
  "-99.18857,19.323634",
  "-99.187674,19.323987",
  "-99.187826,19.323867",
  "-99.187824,19.324885",
  "-99.187727,19.324294",
  "-99.187703,19.324156",
  "-99.188102,19.326803",
  "-99.186253,19.328028",
  "-99.186228,19.328253",
  "-99.186234,19.328328",
  "-99.18676,19.324389",
  "-99.187098,19.32428",
  "-99.187193,19.324277",
  "-99.187581,19.324077",
  "-99.187624,19.324025",
  "-99.186372,19.324514",
  "-99.182924,19.324745",
  "-99.182867,19.32475",
  "-99.182811,19.324794",
  "-99.182574,19.325035",
  "-99.182518,19.325054",
  "-99.182411,19.325077",
  "-99.182189,19.325092",
  "-99.182065,19.325115",
  "-99.182009,19.32509",
  "-99.181971,19.325067",
  "-99.181708,19.32511",
  "-99.18165,19.325058",
  "-99.181486,19.325242",
  "-99.181475,19.325229",
  "-99.181309,19.325137",
  "-99.1821,19.325639",
  "-99.18204,19.325566",
  "-99.181951,19.325582",
  "-99.181865,19.325588",
  "-99.181779,19.325577",
  "-99.181713,19.325553",
  "-99.181649,19.325503",
  "-99.181592,19.325442",
  "-99.18155,19.325347",
  "-99.181552,19.325313",
  "-99.17655,19.322393",
  "-99.17702,19.322347",
  "-99.176579,19.323252",
  "-99.176834,19.323308",
  "-99.176878,19.323264",
  "-99.17696,19.323337",
  "-99.177459,19.323768",
  "-99.177506,19.324178",
  "-99.17615,19.323234",
  "-99.175851,19.323267",
  "-99.17526,19.323327",
  "-99.175149,19.323345",
  "-99.175096,19.323368",
  "-99.175053,19.323409",
  "-99.175021,19.323457",
  "-99.174928,19.324187",
  "-99.174742,19.324119",
  "-99.174862,19.324131",
  "-99.174987,19.32424",
  "-99.175173,19.324388",
  "-99.175181,19.324397",
  "-99.175269,19.324488",
  "-99.175198,19.325537",
  "-99.175242,19.325591",
  "-99.175275,19.325623",
  "-99.175315,19.325652",
  "-99.175355,19.325674",
  "-99.175394,19.325687",
  "-99.175479,19.325701",
  "-99.17556,19.325706",
  "-99.175888,19.325667",
  "-99.176028,19.325651",
  "-99.186748,19.332086",
  "-99.186789,19.332477",
  "-99.186849,19.332905",
  "-99.175889,19.32567",
  "-99.175529,19.325706",
  "-99.175393,19.325695",
  "-99.175264,19.325651",
  "-99.175128,19.325582",
  "-99.175052,19.325535",
  "-99.174945,19.325445",
  "-99.174861,19.325346",
  "-99.174803,19.325247",
  "-99.174747,19.325142",
  "-99.174726,19.325068",
  "-99.17689,19.325614",
  "-99.176462,19.325664",
  "-99.176456,19.325618",
  "-99.176081,19.325664",
  "-99.178492,19.326656",
  "-99.178474,19.326664",
  "-99.178286,19.32669",
  "-99.177127,19.326836",
  "-99.17698,19.326855",
  "-99.176615,19.326902",
  "-99.176554,19.326412",
  "-99.176115,19.326459",
  "-99.177083,19.327655",
  "-99.177,19.327011",
  "-99.177189,19.328488",
  "-99.180888,19.330629",
  "-99.180894,19.330879",
  "-99.180752,19.330883",
  "-99.180603,19.331336",
  "-99.180568,19.330995",
  "-99.180528,19.330958",
  "-99.180447,19.330904",
  "-99.180385,19.330892",
  "-99.180372,19.330889",
  "-99.180288,19.330887",
  "-99.180089,19.330904",
  "-99.179933,19.330944",
  "-99.179772,19.331003",
  "-99.179648,19.331087",
  "-99.179289,19.331388",
  "-99.179153,19.331503",
  "-99.179051,19.331628",
  "-99.17901,19.331705",
  "-99.178935,19.331829",
  "-99.178897,19.331929",
  "-99.178851,19.332133",
  "-99.178834,19.332276",
  "-99.178816,19.332465",
  "-99.178831,19.33252",
  "-99.178851,19.332572",
  "-99.178862,19.332628",
  "-99.178864,19.332759",
  "-99.17885,19.332859",
  "-99.178836,19.332896",
  "-99.178831,19.33298",
  "-99.181461,19.33103",
  "-99.181473,19.331117",
  "-99.18278,19.330307",
  "-99.18276,19.330303",
  "-99.183621,19.329495",
  "-99.183854,19.330911",
  "-99.183798,19.330809",
  "-99.18375,19.33072",
  "-99.183473,19.331085",
  "-99.183171,19.331125",
  "-99.183201,19.331402",
  "-99.183552,19.332335",
  "-99.183623,19.33288",
  "-99.183507,19.331996",
  "-99.186374,19.330376",
  "-99.186679,19.331321",
  "-99.186444,19.330622",
  "-99.186792,19.330586",
  "-99.188123,19.331647",
  "-99.187103,19.331764",
  "-99.186837,19.331795",
  "-99.18674,19.331856",
  "-99.189352,19.332672",
  "-99.189265,19.331999",
  "-99.189144,19.330899",
  "-99.189112,19.330733",
  "-99.189008,19.332705",
  "-99.188328,19.33277",
  "-99.18886,19.331562",
  "-99.188427,19.331612",
  "-99.18775,19.333143",
  "-99.187729,19.332937",
  "-99.188445,19.333666",
  "-99.18601,19.333901",
  "-99.187332,19.332981",
  "-99.186868,19.333033",
  "-99.186962,19.333701",
  "-99.185772,19.335952",
  "-99.185891,19.335996",
  "-99.18598,19.336061",
  "-99.186244,19.336423",
  "-99.18521,19.335956",
  "-99.185517,19.335926",
  "-99.185703,19.33592",
  "-99.183606,19.335419",
  "-99.18397,19.335602",
  "-99.183616,19.335803",
  "-99.183644,19.335649",
  "-99.183465,19.335876",
  "-99.183599,19.335911",
  "-99.180934,19.334753",
  "-99.180933,19.334745",
  "-99.180897,19.334452",
  "-99.180825,19.333816",
  "-99.184015,19.333806",
  "-99.183719,19.333621",
  "-99.183689,19.33361",
  "-99.183577,19.333563",
  "-99.183436,19.333552",
  "-99.183287,19.333562",
  "-99.183037,19.333585",
  "-99.183673,19.333264",
  "-99.18371,19.333543",
  "-99.181927,19.333687",
  "-99.181796,19.333697",
  "-99.181231,19.333766",
  "-99.180738,19.333503",
  "-99.180735,19.333482",
  "-99.18068,19.333012",
  "-99.180621,19.332575",
  "-99.181778,19.332212",
  "-99.181874,19.333167",
  "-99.178917,19.333272",
  "-99.17965,19.333203",
  "-99.179616,19.332917",
  "-99.178088,19.331367",
  "-99.178338,19.331413",
  "-99.17847,19.331402",
  "-99.178545,19.331349",
  "-99.183602,19.329309",
  "-99.182846,19.330087",
  "-99.18354,19.328615",
  "-99.183467,19.328377",
  "-99.183399,19.328039",
  "-99.183286,19.327822",
  "-99.183194,19.327762",
  "-99.182968,19.327425",
  "-99.185382,19.326327",
  "-99.185293,19.325498",
  "-99.182907,19.327326",
  "-99.182699,19.327156",
  "-99.182629,19.326499",
  "-99.180711,19.328668",
  "-99.180578,19.328686",
  "-99.181419,19.328571",
  "-99.181537,19.328626",
  "-99.181593,19.328645",
  "-99.18173,19.328725",
  "-99.181803,19.32881",
  "-99.180789,19.335344",
  "-99.180911,19.335021",
  "-99.181447,19.327423",
  "-99.180699,19.330037",
  "-99.182697,19.329908",
  "-99.182741,19.329922",
  "-99.182783,19.329948",
  "-99.182808,19.329964",
  "-99.180903,19.327283",
  "-99.180802,19.327259",
  "-99.18079,19.327218",
  "-99.180754,19.327139",
  "-99.180675,19.327058",
  "-99.180599,19.327004",
  "-99.180479,19.326962",
  "-99.180383,19.326964",
  "-99.180298,19.326976",
  "-99.180218,19.327005",
  "-99.180163,19.327039",
  "-99.18014,19.327055",
  "-99.180063,19.327009",
  "-99.182964,19.327422",
  "-99.181827,19.328841",
  "-99.18186,19.328954",
  "-99.181857,19.329014",
  "-99.181864,19.329059",
  "-99.181917,19.329112",
  "-99.181959,19.329136",
  "-99.189534,19.334494",
  "-99.18951,19.334431",
  "-99.189429,19.334361",
  "-99.189313,19.331509",
  "-99.18799,19.330457",
  "-99.186698,19.331491",
  "-99.187608,19.325593",
  "-99.187249,19.32547",
  "-99.18695,19.32536",
  "-99.186865,19.325306",
  "-99.18679,19.325246",
  "-99.186742,19.325192",
  "-99.189419,19.333225",
  "-99.189374,19.332839",
  "-99.189365,19.332772",
  "-99.174723,19.325058",
  "-99.1747,19.324915",
  "-99.174689,19.324793",
  "-99.174704,19.32459",
  "-99.174719,19.324407",
  "-99.184569,19.332234",
  "-99.191098,19.334296",
  "-99.191051,19.334415",
  "-99.191052,19.334509",
  "-99.191081,19.33459",
  "-99.194139,19.331295",
  "-99.19417,19.331343",
  "-99.19427,19.331409",
  "-99.194385,19.331472",
  "-99.194475,19.331525",
  "-99.194511,19.33157",
  "-99.194525,19.331764",
  "-99.194567,19.331877",
  "-99.193515,19.330468",
  "-99.193603,19.330559",
  "-99.193794,19.330736",
  "-99.193844,19.330798",
  "-99.193962,19.330945",
  "-99.194021,19.331043",
  "-99.194077,19.331148",
  "-99.194123,19.33127",
  "-99.180689,19.330885",
  "-99.190706,19.333487",
  "-99.190674,19.333505",
  "-99.190503,19.333622",
  "-99.190552,19.333688",
  "-99.190624,19.333746",
  "-99.19049,19.333907",
  "-99.190345,19.333946",
  "-99.190345,19.334076",
  "-99.190322,19.334166",
  "-99.190316,19.334235",
  "-99.190332,19.334298",
  "-99.190328,19.334336",
  "-99.188093,19.326734",
  "-99.187975,19.325869",
  "-99.18794,19.325595",
  "-99.18355,19.317286",
  "-99.184791,19.317399",
  "-99.185969,19.317506",
  "-99.1861,19.317507",
  "-99.186154,19.317494",
  "-99.186245,19.317404",
  "-99.186275,19.317258",
  "-99.186254,19.31711",
  "-99.186133,19.316093",
  "-99.180898,19.331301",
  "-99.181019,19.331287",
  "-99.181203,19.331397",
  "-99.181401,19.331444",
  "-99.181515,19.331429",
  "-99.180482,19.308097",
  "-99.180511,19.307731",
  "-99.180743,19.307602",
  "-99.181145,19.307417",
  "-99.181809,19.307122",
  "-99.183421,19.306416",
  "-99.183565,19.306324",
  "-99.183637,19.306263",
  "-99.185168,19.305393",
  "-99.185369,19.305269",
  "-99.18019,19.310162",
  "-99.180291,19.310089",
  "-99.180382,19.310038",
  "-99.180306,19.309912",
  "-99.180255,19.309788",
  "-99.180371,19.309737",
  "-99.181941,19.310721",
  "-99.181914,19.310832",
  "-99.18196,19.310879",
  "-99.181985,19.311072",
  "-99.182379,19.314003",
  "-99.182268,19.314119",
  "-99.182205,19.314156",
  "-99.182126,19.314187",
  "-99.182041,19.3142",
  "-99.181543,19.314144",
  "-99.18592,19.314072",
  "-99.185534,19.314097",
  "-99.185187,19.314052",
  "-99.187479,19.314669",
  "-99.187142,19.314705",
  "-99.186929,19.314724",
  "-99.18637,19.315451",
  "-99.184888,19.316067",
  "-99.184946,19.315112",
  "-99.18493,19.315015",
  "-99.184939,19.31492",
  "-99.184906,19.314856",
  "-99.184837,19.314787",
  "-99.184793,19.31474",
  "-99.184782,19.314661",
  "-99.184802,19.314477",
  "-99.18484,19.314309",
  "-99.18486,19.31423",
  "-99.18486,19.314229",
  "-99.184874,19.314011",
  "-99.184643,19.334006",
  "-99.176404,19.317829",
  "-99.176379,19.317865",
  "-99.182678,19.329941",
  "-99.182616,19.329967",
  "-99.18257,19.32998",
  "-99.182532,19.32998",
  "-99.176206,19.317649",
  "-99.176319,19.317526",
  "-99.17649,19.31739",
  "-99.176732,19.317241",
  "-99.176978,19.317118",
  "-99.177291,19.316993",
  "-99.17751,19.316931",
  "-99.1776,19.316909",
  "-99.177769,19.316873",
  "-99.177871,19.316856",
  "-99.178031,19.316834",
  "-99.17824,19.316818",
  "-99.178378,19.316818",
  "-99.178416,19.316818",
  "-99.178514,19.31682",
  "-99.178805,19.316828",
  "-99.179249,19.316833",
  "-99.179459,19.316839",
  "-99.179711,19.316842",
  "-99.179987,19.31685",
  "-99.180609,19.316857",
  "-99.180932,19.316863",
  "-99.181175,19.316874",
  "-99.181328,19.316888",
  "-99.181516,19.316916",
  "-99.182407,19.317088",
  "-99.180634,19.317223",
  "-99.180449,19.31721",
  "-99.17907,19.317083",
  "-99.178587,19.317055",
  "-99.178122,19.317084",
  "-99.177875,19.317121",
  "-99.177619,19.317197",
  "-99.177378,19.31727",
  "-99.17714,19.317365",
  "-99.17698,19.317437",
  "-99.17688,19.317491",
  "-99.176609,19.317666",
  "-99.176425,19.317803",
  "-99.18363,19.317497",
  "-99.183286,19.317257",
  "-99.178744,19.314964",
  "-99.17873,19.315087",
  "-99.178758,19.315159",
  "-99.17875,19.315221",
  "-99.182302,19.315116",
  "-99.182159,19.31578",
  "-99.18213,19.316032",
  "-99.18216,19.316228",
  "-99.182221,19.316401",
  "-99.18242,19.316892",
  "-99.182408,19.314168",
  "-99.180134,19.310093",
  "-99.180092,19.310048",
  "-99.179987,19.309867",
  "-99.179914,19.309677",
  "-99.18034,19.309629",
  "-99.180314,19.309524",
  "-99.180319,19.30929",
  "-99.180405,19.308584",
  "-99.18045,19.308299",
  "-99.17991,19.309726",
  "-99.179895,19.30986",
  "-99.179863,19.310037",
  "-99.17982,19.310161",
  "-99.17975,19.310273",
  "-99.179667,19.310364",
  "-99.179471,19.310561",
  "-99.179361,19.310723",
  "-99.179279,19.310929",
  "-99.17922,19.311174",
  "-99.17914,19.311587",
  "-99.179089,19.31186",
  "-99.17905,19.312276",
  "-99.179043,19.312481",
  "-99.179034,19.312545",
  "-99.178983,19.312683",
  "-99.178985,19.312744",
  "-99.179,19.313087",
  "-99.178967,19.313311",
  "-99.178927,19.313541",
  "-99.178878,19.313671",
  "-99.178884,19.313777",
  "-99.178902,19.313886",
  "-99.178879,19.313976",
  "-99.178778,19.314113",
  "-99.178706,19.314261",
  "-99.178699,19.314399",
  "-99.178715,19.31451",
  "-99.178722,19.314608",
  "-99.178698,19.314711",
  "-99.178698,19.314864",
  "-99.182026,19.311398",
  "-99.18196,19.311061",
  "-99.18158,19.310886",
  "-99.180594,19.310444",
  "-99.1803,19.310301",
  "-99.181312,19.310473",
  "-99.185141,19.311739",
  "-99.185173,19.311854",
  "-99.18493,19.311887",
  "-99.184846,19.311876",
  "-99.184839,19.312008",
  "-99.184845,19.314009",
  "-99.185896,19.313647",
  "-99.185881,19.313339",
  "-99.18586,19.313224",
  "-99.185814,19.313051",
  "-99.185758,19.3129",
  "-99.185629,19.312583",
  "-99.185468,19.312193",
  "-99.18542,19.312132",
  "-99.18538,19.312096",
  "-99.18533,19.312067",
  "-99.185206,19.312045",
  "-99.184989,19.312023",
  "-99.18593,19.314358",
  "-99.186097,19.315805",
  "-99.186089,19.315727",
  "-99.186034,19.315354",
  "-99.185949,19.314642",
  "-99.185939,19.314459",
  "-99.183521,19.317094",
  "-99.183556,19.316931",
  "-99.183696,19.316564",
  "-99.18381,19.316391",
  "-99.183965,19.316258",
  "-99.1842,19.316083",
  "-99.184243,19.31605",
  "-99.184899,19.312017",
  "-99.176304,19.317738",
  "-99.17619,19.319484",
  "-99.176273,19.319892",
  "-99.181533,19.331606",
  "-99.18157,19.33187",
  "-99.184374,19.334645",
  "-99.174507,19.32453",
  "-99.174391,19.324535",
  "-99.174368,19.324801",
  "-99.173887,19.324743",
  "-99.17393,19.324359",
  "-99.17804,19.334338",
  "-99.176304,19.33589",
  "-99.176693,19.335924",
  "-99.176696,19.335897",
  "-99.177333,19.335938",
  "-99.190672,19.334477",
  "-99.1907,19.334672",
  "-99.190935,19.334689",
  "-99.180727,19.330305",
  "-99.190435,19.334782",
  "-99.190459,19.334967",
  "-99.190507,19.335105",
  "-99.190509,19.33545",
  "-99.19055,19.335527",
  "-99.190532,19.335657",
  "-99.190531,19.335738",
  "-99.190543,19.335838",
  "-99.190581,19.336168",
  "-99.195254,19.33198",
  "-99.195324,19.331915",
  "-99.195437,19.331858",
  "-99.19552,19.331841",
  "-99.195611,19.331832",
  "-99.195699,19.331847",
  "-99.195796,19.331804",
  "-99.19488,19.334363",
  "-99.194834,19.334272",
  "-99.194852,19.334187",
  "-99.194981,19.333726",
  "-99.195071,19.333404",
  "-99.195128,19.333138",
  "-99.19515,19.333025",
  "-99.195178,19.332752",
  "-99.195189,19.33254",
  "-99.195006,19.33312",
  "-99.1949,19.333062",
  "-99.194888,19.333012",
  "-99.194871,19.332984",
  "-99.194828,19.332966",
  "-99.194693,19.332937",
  "-99.192424,19.32917",
  "-99.192382,19.329615",
  "-99.192226,19.329686",
  "-99.192064,19.329761",
  "-99.19204,19.329791",
  "-99.192034,19.329841",
  "-99.192045,19.329938",
  "-99.193176,19.329261",
  "-99.19263,19.329221",
  "-99.192835,19.32929",
  "-99.192501,19.328885",
  "-99.192275,19.328721",
  "-99.19193,19.328478",
  "-99.191877,19.329952",
  "-99.191786,19.32906",
  "-99.191802,19.328887",
  "-99.191905,19.328631",
  "-99.192116,19.328345",
  "-99.192099,19.328126",
  "-99.192074,19.327999",
  "-99.19207,19.327743",
  "-99.192151,19.327526",
  "-99.192377,19.327083",
  "-99.192974,19.326967",
  "-99.191663,19.328285",
  "-99.191466,19.328152",
  "-99.191317,19.328092",
  "-99.191178,19.328066",
  "-99.191016,19.328069",
  "-99.19092,19.328095",
  "-99.190809,19.328155",
  "-99.190723,19.328205",
  "-99.19066,19.328262",
  "-99.190614,19.328316",
  "-99.190553,19.328401",
  "-99.190473,19.32858",
  "-99.190397,19.328657",
  "-99.190294,19.328705",
  "-99.190188,19.328716",
  "-99.190082,19.3287",
  "-99.189871,19.328714",
  "-99.191892,19.328155",
  "-99.177434,19.335941",
  "-99.177462,19.335567",
  "-99.177635,19.335133",
  "-99.177785,19.335038",
  "-99.17398,19.323926",
  "-99.17445,19.32398",
  "-99.174468,19.323781",
  "-99.174644,19.323791",
  "-99.17475,19.323857",
  "-99.174771,19.323863",
  "-99.186331,19.314624",
  "-99.185635,19.31155",
  "-99.185375,19.311668",
  "-99.185218,19.311718",
  "-99.184937,19.311771",
  "-99.184925,19.311772",
  "-99.18478,19.311761",
  "-99.184605,19.311734",
  "-99.184421,19.311688",
  "-99.18405,19.311546",
  "-99.182169,19.310811",
  "-99.184782,19.312001",
  "-99.184616,19.311979",
  "-99.184325,19.311909",
  "-99.184283,19.311896",
  "-99.184011,19.311801",
  "-99.18336,19.311563",
  "-99.183247,19.311539",
  "-99.18298,19.311487",
  "-99.182152,19.310804",
  "-99.181978,19.310735",
  "-99.182041,19.311517",
  "-99.18207,19.311745",
  "-99.180037,19.313978",
  "-99.179581,19.313928",
  "-99.179334,19.313955",
  "-99.179173,19.314042",
  "-99.181032,19.314087",
  "-99.180636,19.314043",
  "-99.180146,19.31399",
  "-99.181321,19.314119",
  "-99.18319,19.317447",
  "-99.182467,19.317385",
  "-99.18147,19.317292",
  "-99.183623,19.317578",
  "-99.18307,19.318642",
  "-99.18299,19.318747",
  "-99.182893,19.318801",
  "-99.182778,19.318815",
  "-99.18267,19.318818",
  "-99.182538,19.318758",
  "-99.18529,19.325468",
  "-99.1853,19.325141",
  "-99.18464,19.325527",
  "-99.185158,19.325513",
  "-99.184693,19.325587",
  "-99.18479,19.325669",
  "-99.184947,19.325883",
  "-99.18505,19.326717",
  "-99.1863,19.328412",
  "-99.186352,19.328901",
  "-99.184195,19.329624",
  "-99.184132,19.329615",
  "-99.1841,19.329596",
  "-99.184086,19.329545",
  "-99.186164,19.328445",
  "-99.186043,19.328567",
  "-99.185897,19.328654",
  "-99.18574,19.328719",
  "-99.185578,19.328746",
  "-99.184052,19.329271",
  "-99.184012,19.328949",
  "-99.183582,19.329124",
  "-99.18355,19.32864",
  "-99.181351,19.330196",
  "-99.18132,19.330199",
  "-99.181227,19.330188",
  "-99.181141,19.330174",
  "-99.180998,19.330111",
  "-99.18294,19.335071",
  "-99.182961,19.335203",
  "-99.183725,19.333705",
  "-99.18291,19.333794",
  "-99.181245,19.325102",
  "-99.181156,19.325002",
  "-99.18077,19.325045",
  "-99.180457,19.32507",
  "-99.180388,19.32503",
  "-99.179627,19.325121",
  "-99.179621,19.325083",
  "-99.179519,19.325094",
  "-99.179448,19.325082",
  "-99.17922,19.325071",
  "-99.17916,19.325072",
  "-99.179454,19.324251",
  "-99.1795,19.324663",
  "-99.181264,19.324951",
  "-99.181236,19.324677",
  "-99.188511,19.333773",
  "-99.188514,19.333657",
  "-99.189199,19.333313",
  "-99.188884,19.33349",
  "-99.189472,19.334321",
  "-99.189493,19.334255",
  "-99.189521,19.334149",
  "-99.189523,19.334064",
  "-99.18951,19.333925",
  "-99.189426,19.333285",
  "-99.188649,19.334153",
  "-99.188575,19.334038",
  "-99.18851,19.33384",
  "-99.188792,19.334185",
  "-99.189102,19.335479",
  "-99.189119,19.335564",
  "-99.189044,19.335694",
  "-99.189122,19.336412",
  "-99.189096,19.336459",
  "-99.189162,19.336916",
  "-99.188998,19.33569",
  "-99.18919,19.335515",
  "-99.18955,19.335196",
  "-99.189595,19.335084",
  "-99.189635,19.33506",
  "-99.189643,19.33502",
  "-99.188899,19.335173",
  "-99.188952,19.335449",
  "-99.183557,19.335136",
  "-99.18094,19.334915",
  "-99.180935,19.334828",
  "-99.181598,19.332048",
  "-99.180683,19.332108",
  "-99.18114,19.331928",
  "-99.189474,19.334731",
  "-99.18953,19.334649",
  "-99.189544,19.33458",
  "-99.189416,19.334703",
  "-99.189268,19.334672",
  "-99.18837,19.33481",
  "-99.187581,19.334939",
  "-99.187456,19.33496",
  "-99.183953,19.335627",
  "-99.183973,19.335723",
  "-99.184033,19.33579",
  "-99.184253,19.335865",
  "-99.184508,19.335941",
  "-99.184615,19.335968",
  "-99.184853,19.335987",
  "-99.184899,19.335655",
  "-99.185105,19.335855",
  "-99.185977,19.335474",
  "-99.185985,19.335563",
  "-99.185988,19.335698",
  "-99.185961,19.335778",
  "-99.185914,19.335843",
  "-99.185865,19.335895",
  "-99.185812,19.335943",
  "-99.187347,19.334978",
  "-99.187213,19.335",
  "-99.189412,19.334388",
  "-99.189295,19.334457",
  "-99.18916,19.334487",
  "-99.185875,19.333911",
  "-99.185687,19.333926",
  "-99.185776,19.333026",
  "-99.184689,19.333149",
  "-99.183906,19.333686",
  "-99.18898,19.329636",
  "-99.18897,19.329515",
  "-99.188955,19.329412",
  "-99.188986,19.329748",
  "-99.189057,19.330168",
  "-99.189059,19.330614",
  "-99.18898,19.330517",
  "-99.188862,19.330443",
  "-99.188793,19.330413",
  "-99.188721,19.330393",
  "-99.18908,19.3303",
  "-99.189117,19.330619",
  "-99.188545,19.330015",
  "-99.188671,19.329962",
  "-99.188759,19.329901",
  "-99.188842,19.329815",
  "-99.188941,19.329708",
  "-99.184547,19.330531",
  "-99.18454,19.330579",
  "-99.184531,19.33062",
  "-99.18454,19.330753",
  "-99.184553,19.330759",
  "-99.1864,19.330488",
  "-99.18643,19.330482",
  "-99.187971,19.330344",
  "-99.187942,19.330316",
  "-99.187773,19.330149",
  "-99.188319,19.330421",
  "-99.186793,19.330635",
  "-99.18712,19.330604",
  "-99.187611,19.330501",
  "-99.187581,19.330558",
  "-99.187531,19.330566",
  "-99.187356,19.330583",
  "-99.187297,19.330591",
  "-99.187284,19.330586",
  "-99.186289,19.330637",
  "-99.186864,19.33058",
  "-99.18727,19.330578",
  "-99.187227,19.330544",
  "-99.187129,19.330696",
  "-99.187154,19.330949",
  "-99.185851,19.330678",
  "-99.185595,19.330707",
  "-99.185718,19.33212",
  "-99.186317,19.330871",
  "-99.185354,19.330734",
  "-99.185157,19.330749",
  "-99.184794,19.330754",
  "-99.185369,19.332155",
  "-99.18563,19.331057",
  "-99.186368,19.331351",
  "-99.186352,19.331397",
  "-99.186349,19.331521",
  "-99.186359,19.331662",
  "-99.186232,19.331926",
  "-99.185526,19.33161",
  "-99.185332,19.331631",
  "-99.186074,19.331551",
  "-99.184618,19.331199",
  "-99.184113,19.331255",
  "-99.18275,19.33039",
  "-99.182683,19.330398",
  "-99.182694,19.330464",
  "-99.18252,19.329871",
  "-99.182048,19.329913",
  "-99.18272,19.330293",
  "-99.182665,19.330253",
  "-99.182582,19.33018",
  "-99.184439,19.335453",
  "-99.184119,19.335507",
  "-99.184059,19.335519",
  "-99.184004,19.335555",
  "-99.183982,19.335584",
  "-99.181976,19.329146",
  "-99.182086,19.329134",
  "-99.182133,19.329151",
  "-99.182159,19.32915",
  "-99.18175,19.329938",
  "-99.18176,19.330156",
  "-99.181571,19.330175",
  "-99.181706,19.329326",
  "-99.18172,19.329565",
  "-99.180565,19.328627",
  "-99.180458,19.328637",
  "-99.180229,19.329162",
  "-99.179877,19.328985",
  "-99.18049,19.32879",
  "-99.180409,19.328886",
  "-99.180364,19.328935",
  "-99.18033,19.328987",
  "-99.180299,19.32907",
  "-99.180282,19.329149",
  "-99.182593,19.326157",
  "-99.182543,19.326109",
  "-99.182385,19.326527",
  "-99.176963,19.326242",
  "-99.176648,19.326268",
  "-99.176669,19.326401",
  "-99.177036,19.326237",
  "-99.177081,19.326536",
  "-99.178252,19.328064",
  "-99.177866,19.328396",
  "-99.18516,19.32434",
  "-99.184691,19.324856",
  "-99.184694,19.324888",
  "-99.184567,19.324902",
  "-99.184591,19.325044",
  "-99.18509,19.325047",
  "-99.184981,19.32485",
  "-99.18664,19.325083",
  "-99.186518,19.324838",
  "-99.186618,19.32526",
  "-99.186622,19.325378",
  "-99.18604,19.325478",
  "-99.191698,19.327556",
  "-99.191618,19.327041",
  "-99.191486,19.32692",
  "-99.191266,19.32688",
  "-99.191098,19.326874",
  "-99.190963,19.32692",
  "-99.190841,19.326982",
  "-99.190692,19.327093",
  "-99.190489,19.327211",
  "-99.190342,19.327276",
  "-99.190265,19.327284",
  "-99.191926,19.32828",
  "-99.19197,19.32836",
  "-99.192,19.328401",
  "-99.185078,19.311757",
  "-99.18501,19.311764",
  "-99.180017,19.308067",
  "-99.179943,19.308108",
  "-99.179867,19.308191",
  "-99.179821,19.308292",
  "-99.179762,19.308391",
  "-99.179803,19.30842",
  "-99.179888,19.308525",
  "-99.179928,19.308621",
  "-99.179942,19.30876",
  "-99.179915,19.309002",
  "-99.179885,19.309387",
  "-99.179884,19.309515",
  "-99.179061,19.322536",
  "-99.178843,19.322464",
  "-99.179145,19.322222",
  "-99.179095,19.322405",
  "-99.179081,19.322455",
  "-99.17918,19.322234",
  "-99.179621,19.322407",
  "-99.180454,19.322734",
  "-99.180916,19.322915",
  "-99.181501,19.323141",
  "-99.18186,19.323287",
  "-99.182094,19.323379",
  "-99.182277,19.323452",
  "-99.182464,19.323503",
  "-99.18265,19.323515",
  "-99.182798,19.323504",
  "-99.182932,19.323466",
  "-99.183054,19.323426",
  "-99.183177,19.323379",
  "-99.17631,19.320079",
  "-99.17643,19.320365",
  "-99.176487,19.320579",
  "-99.177056,19.322343",
  "-99.177203,19.322292",
  "-99.177365,19.32221",
  "-99.17755,19.322146",
  "-99.177726,19.322101",
  "-99.177755,19.322096",
  "-99.176235,19.323044",
  "-99.17651,19.320662",
  "-99.176587,19.321011",
  "-99.176611,19.32117",
  "-99.176624,19.321352",
  "-99.176627,19.321527",
  "-99.17661,19.321732",
  "-99.17658,19.321991",
  "-99.176605,19.322094",
  "-99.176672,19.322204",
  "-99.176722,19.322261",
  "-99.176791,19.322307",
  "-99.176887,19.322347",
  "-99.176284,19.32292",
  "-99.1763,19.32285",
  "-99.176304,19.322405",
  "-99.176304,19.322301",
  "-99.1763,19.322129",
  "-99.176195,19.323084",
  "-99.176149,19.323108",
  "-99.176059,19.323118",
  "-99.175079,19.323222",
  "-99.174958,19.323217",
  "-99.174928,19.323331",
  "-99.174892,19.323331",
  "-99.174873,19.323557",
  "-99.174824,19.323761",
  "-99.174809,19.323839",
  "-99.174776,19.323838",
  "-99.186687,19.314736",
  "-99.186529,19.314713",
  "-99.18637,19.314652",
  "-99.188337,19.327712",
  "-99.18826,19.32759",
  "-99.18817,19.327332",
  "-99.179776,19.334369",
  "-99.178196,19.3267",
  "-99.178238,19.327203",
  "-99.18488,19.313547",
  "-99.185155,19.313559",
  "-99.184631,19.314183",
  "-99.184866,19.313697",
  "-99.18482,19.313966",
  "-99.184727,19.313961",
  "-99.182425,19.314397",
  "-99.182414,19.314552",
  "-99.18237,19.314818",
  "-99.182096,19.308034",
  "-99.182099,19.30794",
  "-99.182141,19.31064",
  "-99.182193,19.310482",
  "-99.182141,19.310367",
  "-99.182133,19.310199",
  "-99.180956,19.310331",
  "-99.180734,19.310217",
  "-99.180658,19.310161",
  "-99.18056,19.310071",
  "-99.180488,19.309984",
  "-99.18138,19.310135",
  "-99.185784,19.311478",
  "-99.185638,19.311317",
  "-99.176297,19.32203",
  "-99.176288,19.321853",
  "-99.176252,19.32146",
  "-99.176212,19.321083",
  "-99.176079,19.320383",
  "-99.175965,19.319791",
  "-99.175923,19.3196",
  "-99.178509,19.327165",
  "-99.185166,19.314315",
  "-99.18542,19.324682",
  "-99.185565,19.324787",
  "-99.185601,19.325049",
  "-99.18428,19.325083",
  "-99.18382,19.328065",
  "-99.184155,19.327785",
  "-99.184263,19.327456",
  "-99.183611,19.327224",
  "-99.183782,19.326793",
  "-99.183611,19.326769",
  "-99.182404,19.327576",
  "-99.182564,19.327752",
  "-99.181102,19.328433",
  "-99.181047,19.328446",
  "-99.180985,19.328467",
  "-99.180378,19.328596",
  "-99.180467,19.328448",
  "-99.180335,19.328367",
  "-99.18027,19.328329",
  "-99.181094,19.32829",
  "-99.18097,19.328154",
  "-99.180762,19.328184",
  "-99.183107,19.32979",
  "-99.183343,19.329512",
  "-99.18338,19.329529",
  "-99.182822,19.329984",
  "-99.18284,19.330015",
  "-99.182085,19.330202",
  "-99.182275,19.329139",
  "-99.182301,19.329187",
  "-99.182318,19.329277",
  "-99.182355,19.329364",
  "-99.182436,19.329431",
  "-99.182496,19.329473",
  "-99.18215,19.329055",
  "-99.182499,19.329011",
  "-99.18261,19.328997",
  "-99.182458,19.328667",
  "-99.181163,19.327343",
  "-99.182276,19.326613",
  "-99.181469,19.327343",
  "-99.181425,19.327018",
  "-99.181624,19.326118",
  "-99.181998,19.326082",
  "-99.182024,19.326367",
  "-99.180431,19.326351",
  "-99.1804,19.326332",
  "-99.18032,19.326334",
  "-99.180297,19.326214",
  "-99.180113,19.326231",
  "-99.180088,19.326135",
  "-99.180051,19.32613",
  "-99.180035,19.326084",
  "-99.179745,19.326118",
  "-99.179749,19.326174",
  "-99.179454,19.326208",
  "-99.17945,19.326233",
  "-99.180523,19.326257",
  "-99.18059,19.326154",
  "-99.180548,19.325802",
  "-99.180261,19.325851",
  "-99.178567,19.32634",
  "-99.17861,19.326644",
  "-99.177991,19.325435",
  "-99.178047,19.325492",
  "-99.178186,19.325584",
  "-99.178447,19.32556",
  "-99.17825,19.32633",
  "-99.178101,19.326342",
  "-99.178045,19.326281",
  "-99.178034,19.326222",
  "-99.177903,19.326228",
  "-99.177901,19.32623",
  "-99.177355,19.327314",
  "-99.175445,19.326532",
  "-99.175196,19.326559",
  "-99.175214,19.326666",
  "-99.175169,19.326674",
  "-99.176627,19.32706",
  "-99.176623,19.327007",
  "-99.176199,19.327052",
  "-99.176234,19.327749",
  "-99.176213,19.32758",
  "-99.176384,19.32986",
  "-99.176232,19.329771",
  "-99.176187,19.32979",
  "-99.178561,19.330185",
  "-99.178661,19.330248",
  "-99.17872,19.330265",
  "-99.178182,19.330094",
  "-99.178088,19.330117",
  "-99.178098,19.330169",
  "-99.18117,19.324028",
  "-99.180858,19.324069",
  "-99.179507,19.324889",
  "-99.179389,19.324939",
  "-99.179328,19.324972",
  "-99.179268,19.325009",
  "-99.179237,19.325011",
  "-99.180158,19.324799",
  "-99.180167,19.324862",
  "-99.179514,19.324943",
  "-99.179511,19.324767",
  "-99.179167,19.325016",
  "-99.179197,19.324709",
  "-99.179215,19.324842",
  "-99.177243,19.323049",
  "-99.177397,19.32332",
  "-99.177727,19.323277",
  "-99.177576,19.324767",
  "-99.178086,19.324735",
  "-99.175392,19.325171",
  "-99.17546,19.325244",
  "-99.175537,19.325258",
  "-99.175603,19.32522",
  "-99.17622,19.325148",
  "-99.186957,19.322445",
  "-99.187017,19.322021",
  "-99.186115,19.322365",
  "-99.186044,19.322155",
  "-99.184556,19.322802",
  "-99.184473,19.322709",
  "-99.184435,19.322597",
  "-99.184405,19.322463",
  "-99.184422,19.322348",
  "-99.18449,19.322263",
  "-99.18322,19.323348",
  "-99.183192,19.323049",
  "-99.193007,19.326961",
  "-99.193238,19.326874",
  "-99.193428,19.326782",
  "-99.193694,19.326733",
  "-99.19295,19.326795",
  "-99.192597,19.324259",
  "-99.192516,19.323728",
  "-99.1887,19.327438",
  "-99.188549,19.32752",
  "-99.188459,19.327667",
  "-99.192641,19.326601",
  "-99.192153,19.32654",
  "-99.191766,19.326517",
  "-99.191528,19.326577",
  "-99.19094,19.326811",
  "-99.190796,19.326893",
  "-99.190684,19.326992",
  "-99.190526,19.327095",
  "-99.190265,19.327214",
  "-99.191894,19.330183",
  "-99.189552,19.324827",
  "-99.189699,19.325079",
  "-99.19519,19.332524",
  "-99.195199,19.33214",
  "-99.19532,19.332797",
  "-99.195262,19.333187",
  "-99.195502,19.333318",
  "-99.191158,19.334708",
  "-99.191107,19.334848",
  "-99.191115,19.334966",
  "-99.191155,19.334986",
  "-99.191357,19.334953",
  "-99.19195,19.335018",
  "-99.192358,19.335128",
  "-99.192535,19.335082",
  "-99.192945,19.335084",
  "-99.192993,19.335094",
  "-99.193052,19.335107",
  "-99.193177,19.335181",
  "-99.193235,19.335203",
  "-99.193415,19.335258",
  "-99.19372,19.335207",
  "-99.193737,19.335201",
  "-99.192977,19.334952",
  "-99.192985,19.335023",
  "-99.19552,19.334395",
  "-99.195706,19.334312",
  "-99.19592,19.334197",
  "-99.196128,19.33403",
  "-99.196272,19.333953",
  "-99.196401,19.333905",
  "-99.19653,19.333874",
  "-99.196695,19.333856",
  "-99.197066,19.333807",
  "-99.197068,19.333947",
  "-99.195476,19.334313",
  "-99.197074,19.334411",
  "-99.197366,19.334461",
  "-99.196531,19.334121",
  "-99.19656,19.33416",
  "-99.19739,19.334639",
  "-99.197234,19.334684",
  "-99.197201,19.334951",
  "-99.197337,19.334967",
  "-99.197396,19.335056",
  "-99.197358,19.335235",
  "-99.197263,19.335338",
  "-99.197576,19.33444",
  "-99.197786,19.334418",
  "-99.197835,19.334331",
  "-99.197555,19.334635",
  "-99.197496,19.334642",
  "-99.197515,19.334802",
  "-99.193498,19.321131",
  "-99.19359,19.320566",
  "-99.193583,19.320526",
  "-99.193506,19.319966",
  "-99.193512,19.319744",
  "-99.193598,19.319575",
  "-99.193693,19.319324",
  "-99.193612,19.319232",
  "-99.193683,19.31902",
  "-99.193756,19.318934",
  "-99.193798,19.318812",
  "-99.193812,19.318673",
  "-99.193742,19.318573",
  "-99.19316,19.318451",
  "-99.192939,19.318216",
  "-99.192518,19.318259",
  "-99.194116,19.320617",
  "-99.18871,19.329402",
  "-99.188856,19.328601",
  "-99.188836,19.328486",
  "-99.188806,19.328407",
  "-99.188772,19.328322",
  "-99.188726,19.328205",
  "-99.188632,19.328072",
  "-99.18843,19.327834",
  "-99.188367,19.327759",
  "-99.187186,19.331271",
  "-99.187457,19.331392",
  "-99.187406,19.330914",
  "-99.187201,19.331424",
  "-99.186855,19.331304",
  "-99.18739,19.333479",
  "-99.188279,19.332359",
  "-99.186781,19.336845",
  "-99.186816,19.336843",
  "-99.187225,19.336779",
  "-99.186312,19.336512",
  "-99.186686,19.336437",
  "-99.186022,19.336918",
  "-99.188492,19.336142",
  "-99.188702,19.335954",
  "-99.188987,19.3357",
  "-99.188641,19.335515",
  "-99.189612,19.33496",
  "-99.189565,19.334835",
  "-99.189513,19.334764",
  "-99.18969,19.33513",
  "-99.189737,19.335431",
  "-99.18984,19.335464",
  "-99.189979,19.336427",
  "-99.189976,19.336469",
  "-99.190083,19.337243",
  "-99.190083,19.337583",
  "-99.190221,19.338735",
  "-99.190312,19.338904",
  "-99.190348,19.339233",
  "-99.190342,19.339353",
  "-99.190221,19.339623",
  "-99.190239,19.33982",
  "-99.190361,19.339864",
  "-99.19031,19.340024",
  "-99.186933,19.335045",
  "-99.187388,19.335758",
  "-99.18762,19.335908",
  "-99.187688,19.336093",
  "-99.187457,19.334132",
  "-99.187131,19.334173",
  "-99.186156,19.334843",
  "-99.186084,19.334385",
  "-99.18606,19.334226",
  "-99.184911,19.333985",
  "-99.185735,19.334259",
  "-99.185078,19.334964",
  "-99.183834,19.333969",
  "-99.183528,19.333915",
  "-99.183429,19.333966",
  "-99.183636,19.332983",
  "-99.183124,19.333037",
  "-99.182538,19.333098",
  "-99.1819,19.332192",
  "-99.181778,19.3322",
  "-99.183314,19.332911",
  "-99.183261,19.332535",
  "-99.18318,19.332546",
  "-99.18419,19.332012",
  "-99.184086,19.330989",
  "-99.18637,19.331333",
  "-99.185982,19.330902",
  "-99.18603,19.33123",
  "-99.185652,19.331272",
  "-99.185672,19.331475",
  "-99.185518,19.331491",
  "-99.187599,19.330177",
  "-99.18746,19.329991",
  "-99.187134,19.33004",
  "-99.185994,19.330442",
  "-99.18598,19.330296",
  "-99.18586,19.330317",
  "-99.182001,19.315073",
  "-99.182013,19.315556",
  "-99.181867,19.31555",
  "-99.179107,19.314066",
  "-99.179053,19.314142",
  "-99.179008,19.314204",
  "-99.17899,19.31425",
  "-99.178906,19.314808",
  "-99.178805,19.314794",
  "-99.178793,19.314905",
  "-99.184899,19.313237",
  "-99.180653,19.316437",
  "-99.180572,19.31647",
  "-99.180499,19.316434",
  "-99.180036,19.31641",
  "-99.180083,19.316026",
  "-99.180253,19.316858",
  "-99.180412,19.316857",
  "-99.180099,19.315897",
  "-99.18018,19.315848",
  "-99.180218,19.315381",
  "-99.17992,19.314981",
  "-99.178568,19.316707",
  "-99.178527,19.316764",
  "-99.17846,19.316807",
  "-99.179752,19.315993",
  "-99.180118,19.314311",
  "-99.181166,19.315909",
  "-99.181126,19.316232",
  "-99.180678,19.316172",
  "-99.181294,19.31445",
  "-99.181805,19.31451",
  "-99.184073,19.313924",
  "-99.184023,19.313949",
  "-99.184748,19.313689",
  "-99.184918,19.312959",
  "-99.184565,19.313252",
  "-99.184419,19.31322",
  "-99.18266,19.311351",
  "-99.18243,19.311255",
  "-99.182224,19.311167",
  "-99.183207,19.312608",
  "-99.184211,19.312915",
  "-99.184166,19.312603",
  "-99.183774,19.312581",
  "-99.184226,19.313165",
  "-99.183876,19.313157",
  "-99.183334,19.313236",
  "-99.184,19.31396",
  "-99.183711,19.313938",
  "-99.18437,19.313496",
  "-99.184075,19.31366",
  "-99.184034,19.313758",
  "-99.18213,19.312216",
  "-99.182316,19.313682",
  "-99.181901,19.31174",
  "-99.18175,19.311817",
  "-99.181715,19.311904",
  "-99.181663,19.312065",
  "-99.181671,19.311422",
  "-99.181331,19.311688",
  "-99.180897,19.311717",
  "-99.18078,19.311759",
  "-99.182132,19.310171",
  "-99.181952,19.309979",
  "-99.18198,19.309792",
  "-99.181963,19.310213",
  "-99.181785,19.310184",
  "-99.181755,19.310155",
  "-99.181494,19.310096",
  "-99.181416,19.310142",
  "-99.181424,19.309913",
  "-99.181326,19.310128",
  "-99.181273,19.310059",
  "-99.18113,19.310014",
  "-99.181034,19.310011",
  "-99.180797,19.309842",
  "-99.180732,19.309684",
  "-99.180605,19.309602",
  "-99.17623,19.318075",
  "-99.176156,19.318207",
  "-99.176072,19.318598",
  "-99.17606,19.318774",
  "-99.176117,19.319109",
  "-99.176512,19.318018",
  "-99.176481,19.318047",
  "-99.176789,19.318372",
  "-99.176852,19.318332",
  "-99.177128,19.318621",
  "-99.18026,19.30806",
  "-99.180122,19.308046",
  "-99.185272,19.311367",
  "-99.184847,19.311025",
  "-99.185638,19.311217",
  "-99.185786,19.311203",
  "-99.185776,19.310711",
  "-99.185562,19.305204",
  "-99.185636,19.305133",
  "-99.185671,19.305133",
  "-99.18575,19.305112",
  "-99.18585,19.305115",
  "-99.185954,19.30515",
  "-99.18609,19.305262",
  "-99.18611,19.305321",
  "-99.186462,19.308209",
  "-99.186608,19.309409",
  "-99.186685,19.310275",
  "-99.1867,19.310533",
  "-99.186695,19.31071",
  "-99.18664,19.310909",
  "-99.186584,19.310993",
  "-99.186247,19.311222",
  "-99.186099,19.303755",
  "-99.18602,19.303133",
  "-99.185761,19.303161",
  "-99.185732,19.30329",
  "-99.185811,19.303334",
  "-99.18582,19.303641",
  "-99.185803,19.3037",
  "-99.185749,19.303794",
  "-99.185836,19.303881",
  "-99.185911,19.304499",
  "-99.185878,19.304585",
  "-99.185895,19.30464",
  "-99.185895,19.304692",
  "-99.185828,19.304806",
  "-99.18569,19.304916",
  "-99.185273,19.305152",
  "-99.187518,19.334695",
  "-99.187531,19.3348",
  "-99.187337,19.334881",
  "-99.180617,19.316979",
  "-99.186219,19.315646",
  "-99.190569,19.330046",
  "-99.191063,19.330439",
  "-99.18974,19.323114",
  "-99.189771,19.323696",
  "-99.189808,19.323847",
  "-99.189859,19.323952",
  "-99.190048,19.324148",
  "-99.190165,19.324193",
  "-99.193997,19.33509",
  "-99.195008,19.33465",
  "-99.19382,19.32671",
  "-99.19442,19.326668",
  "-99.192459,19.318123",
  "-99.19228,19.317845",
  "-99.192083,19.317693",
  "-99.191904,19.317624",
  "-99.191669,19.317614",
  "-99.19151,19.31761",
  "-99.191259,19.317647",
  "-99.191077,19.317713",
  "-99.190824,19.317988",
  "-99.190768,19.31813",
  "-99.190975,19.318035",
  "-99.189834,19.325016",
  "-99.190055,19.324955",
  "-99.190516,19.324874",
  "-99.190816,19.324768",
  "-99.19122,19.324561",
  "-99.191384,19.324475",
  "-99.188818,19.323606",
  "-99.188863,19.323609",
  "-99.188905,19.323627",
  "-99.188945,19.323664",
  "-99.18896,19.323703",
  "-99.188964,19.323747",
  "-99.188946,19.323789",
  "-99.18892,19.323818",
  "-99.188888,19.323846",
  "-99.188877,19.323888",
  "-99.188875,19.323924",
  "-99.18888,19.323952",
  "-99.188909,19.323987",
  "-99.188942,19.324023",
  "-99.18898,19.324054",
  "-99.189196,19.324175",
  "-99.189259,19.324195",
  "-99.189353,19.324222",
  "-99.186883,19.334205",
  "-99.1869,19.334294",
  "-99.186564,19.334331",
  "-99.188358,19.335576",
  "-99.186208,19.336723",
  "-99.18621,19.336608",
  "-99.186136,19.33648",
  "-99.184186,19.334668",
  "-99.18414,19.334336",
  "-99.183934,19.334358",
  "-99.182913,19.333875",
  "-99.182753,19.333891",
  "-99.182801,19.334371",
  "-99.183078,19.33256",
  "-99.183025,19.332198",
  "-99.183302,19.332173",
  "-99.18124,19.333943",
  "-99.180063,19.333075",
  "-99.18036,19.333045",
  "-99.180563,19.332115",
  "-99.180314,19.332599",
  "-99.180932,19.331954",
  "-99.180944,19.332099",
  "-99.180741,19.330439",
  "-99.180788,19.330519",
  "-99.180839,19.330563",
  "-99.180888,19.330612",
  "-99.180913,19.330018",
  "-99.182516,19.329603",
  "-99.182541,19.329645",
  "-99.182636,19.32981",
  "-99.182665,19.329838",
  "-99.182684,19.329877",
  "-99.180707,19.328192",
  "-99.181708,19.32819",
  "-99.181535,19.328213",
  "-99.181445,19.328247",
  "-99.181362,19.328306",
  "-99.181278,19.328361",
  "-99.181202,19.328408",
  "-99.18113,19.328426",
  "-99.181121,19.327331",
  "-99.181594,19.327008",
  "-99.181563,19.326717",
  "-99.182065,19.326644",
  "-99.182032,19.326462",
  "-99.182367,19.32642",
  "-99.182384,19.326526",
  "-99.18252,19.325822",
  "-99.182446,19.32583",
  "-99.182434,19.325699",
  "-99.183988,19.32875",
  "-99.18386,19.328635",
  "-99.183713,19.328652",
  "-99.18365,19.328607",
  "-99.185578,19.328933",
  "-99.185525,19.329169",
  "-99.185593,19.329213",
  "-99.185688,19.329296",
  "-99.185729,19.32938",
  "-99.186371,19.329079",
  "-99.186228,19.329097",
  "-99.186909,19.330073",
  "-99.186826,19.330302",
  "-99.186016,19.3264",
  "-99.185195,19.324537",
  "-99.185528,19.32449",
  "-99.185554,19.324546",
  "-99.184736,19.327283",
  "-99.184733,19.327079",
  "-99.182287,19.325715",
  "-99.182276,19.325553",
  "-99.182161,19.325581",
  "-99.187058,19.327485",
  "-99.186794,19.327529",
  "-99.186532,19.32755",
  "-99.186308,19.327451",
  "-99.186796,19.323741",
  "-99.186833,19.323807",
  "-99.186745,19.3239",
  "-99.186754,19.324326",
  "-99.188668,19.329129",
  "-99.188638,19.329122",
  "-99.188588,19.328875",
  "-99.188491,19.328396",
  "-99.188517,19.32831",
  "-99.188441,19.327877",
  "-99.179428,19.324021",
  "-99.177945,19.324132",
  "-99.177844,19.323388",
  "-99.17811,19.324958",
  "-99.178171,19.324995",
  "-99.178245,19.325049",
  "-99.178295,19.325135",
  "-99.178331,19.32531",
  "-99.17849,19.325901",
  "-99.178537,19.325952",
  "-99.180303,19.326209",
  "-99.178612,19.328029",
  "-99.178681,19.32848",
  "-99.178803,19.32847",
  "-99.178873,19.32885",
  "-99.1791,19.328827",
  "-99.175883,19.328413",
  "-99.175798,19.328469",
  "-99.175724,19.328552",
  "-99.175679,19.328652",
  "-99.175659,19.32878",
  "-99.17563,19.328926",
  "-99.175624,19.328988",
  "-99.175576,19.329018",
  "-99.176127,19.32706",
  "-99.176113,19.327022",
  "-99.175952,19.327054",
  "-99.175854,19.327169",
  "-99.175666,19.327188",
  "-99.175526,19.327163",
  "-99.176217,19.325088",
  "-99.176805,19.325028",
  "-99.17787,19.322077",
  "-99.178129,19.322055",
  "-99.178343,19.322063",
  "-99.178845,19.32214",
  "-99.178943,19.322164",
  "-99.179055,19.322197",
  "-99.177494,19.319005",
  "-99.177484,19.319071",
  "-99.177513,19.319146",
  "-99.177448,19.319228",
  "-99.177351,19.319299",
  "-99.176968,19.3193",
  "-99.176879,19.319357",
  "-99.176625,19.31955",
  "-99.176424,19.319725",
  "-99.175864,19.31933",
  "-99.175806,19.319024",
  "-99.175771,19.318736",
  "-99.175812,19.318367",
  "-99.175873,19.31817",
  "-99.175956,19.317987",
  "-99.17604,19.317833",
  "-99.17617,19.317685",
  "-99.181811,19.316007",
  "-99.181238,19.315952",
  "-99.181229,19.315921",
  "-99.180785,19.31439",
  "-99.179287,19.315947",
  "-99.179331,19.315585",
  "-99.17919,19.315544",
  "-99.179183,19.315439",
  "-99.17921,19.315262",
  "-99.183673,19.314041",
  "-99.183551,19.314075",
  "-99.183343,19.313982",
  "-99.182807,19.31419",
  "-99.185196,19.313561",
  "-99.185267,19.313669",
  "-99.185147,19.313766",
  "-99.180798,19.311876",
  "-99.180659,19.311969",
  "-99.179843,19.311862",
  "-99.179831,19.311172",
  "-99.17989,19.311128",
  "-99.179869,19.310961",
  "-99.179825,19.310875",
  "-99.179876,19.310658",
  "-99.180113,19.310315",
  "-99.187919,19.336653",
  "-99.187734,19.336204",
  "-99.186203,19.311253",
  "-99.186127,19.311295",
  "-99.185842,19.311455",
  "-99.186346,19.31114",
  "-99.186404,19.311059",
  "-99.186475,19.310937",
  "-99.18649,19.310813",
  "-99.186486,19.310746",
  "-99.18591,19.310683",
  "-99.185543,19.309642",
  "-99.185922,19.309333",
  "-99.179843,19.332893",
  "-99.180049,19.333031",
  "-99.17962,19.33286",
  "-99.17945,19.332858",
  "-99.179396,19.332476",
  "-99.179242,19.332489",
  "-99.183278,19.330383",
  "-99.186056,19.310652",
  "-99.18601,19.309366",
  "-99.18611,19.309383",
  "-99.186216,19.309461",
  "-99.186305,19.309575",
  "-99.186369,19.309699",
  "-99.186399,19.309805",
  "-99.186426,19.309889",
  "-99.18645,19.310024",
  "-99.186461,19.310175",
  "-99.18647,19.310457",
  "-99.180584,19.316856",
  "-99.1807,19.329376",
  "-99.180676,19.329414",
  "-99.180644,19.329481",
  "-99.180648,19.329589",
  "-99.194867,19.326437",
  "-99.194621,19.326438",
  "-99.194398,19.326439",
  "-99.182267,19.32654",
  "-99.175252,19.324657",
  "-99.175198,19.324703",
  "-99.187366,19.336757",
  "-99.181693,19.330861",
  "-99.181309,19.330872",
  "-99.187407,19.334705",
  "-99.176552,19.322501",
  "-99.176588,19.322608",
  "-99.176589,19.322724",
  "-99.176431,19.32303",
  "-99.187965,19.323665",
  "-99.187925,19.323522",
  "-99.187865,19.323382",
  "-99.187822,19.323307",
  "-99.187742,19.323179",
  "-99.187663,19.323084",
  "-99.18756,19.32297",
  "-99.187362,19.322766",
  "-99.18721,19.322609",
  "-99.187081,19.322514",
  "-99.186994,19.322461",
  "-99.184545,19.330771",
  "-99.183922,19.330781",
  "-99.176223,19.323413",
  "-99.17619,19.323561",
  "-99.176168,19.323699",
  "-99.17615,19.323847",
  "-99.176113,19.323938",
  "-99.176071,19.324019",
  "-99.175999,19.32413",
  "-99.175921,19.324233",
  "-99.175704,19.324393",
  "-99.175491,19.324521",
  "-99.191439,19.33347",
  "-99.191249,19.333388",
  "-99.191019,19.333366",
  "-99.190941,19.333377",
  "-99.19458,19.33217",
  "-99.19491,19.322791",
  "-99.194841,19.322515",
  "-99.194763,19.322302",
  "-99.194672,19.3221",
  "-99.194482,19.321777",
  "-99.194157,19.32128",
  "-99.194068,19.321191",
  "-99.193932,19.321114",
  "-99.193812,19.32109",
  "-99.193692,19.321094",
  "-99.19356,19.321111",
  "-99.194361,19.322815",
  "-99.19433,19.322696",
  "-99.1943,19.322628",
  "-99.194239,19.32255",
  "-99.194186,19.322499",
  "-99.194089,19.322441",
  "-99.19399,19.322415",
  "-99.193874,19.322406",
  "-99.193764,19.322411",
  "-99.193616,19.322455",
  "-99.193489,19.322512",
  "-99.19336,19.322603",
  "-99.193128,19.322879",
  "-99.19231,19.322865",
  "-99.192241,19.323018",
  "-99.192158,19.323148",
  "-99.192055,19.323301",
  "-99.192761,19.323481",
  "-99.192645,19.323606",
  "-99.192535,19.323712",
  "-99.190816,19.324224",
  "-99.190376,19.324238",
  "-99.19028,19.324226",
  "-99.190783,19.324523",
  "-99.190167,19.32464",
  "-99.189779,19.324716",
  "-99.189583,19.324814",
  "-99.183821,19.323008",
  "-99.18361,19.323096",
  "-99.183387,19.323228",
  "-99.182593,19.323877",
  "-99.182543,19.323788",
  "-99.182497,19.32374",
  "-99.182402,19.323672",
  "-99.182038,19.323526",
  "-99.181731,19.323421",
  "-99.180839,19.323127",
  "-99.181777,19.324915",
  "-99.181636,19.325073",
  "-99.179098,19.325078",
  "-99.179034,19.325089",
  "-99.178997,19.325117",
  "-99.17896,19.325165",
  "-99.178924,19.32519",
  "-99.178897,19.325195",
  "-99.178166,19.32534",
  "-99.178072,19.325385",
  "-99.178592,19.322496",
  "-99.178394,19.322455",
  "-99.178197,19.322438",
  "-99.17805,19.322446",
  "-99.177909,19.322483",
  "-99.177799,19.322535",
  "-99.177642,19.322631",
  "-99.178609,19.33094",
  "-99.176583,19.323718",
  "-99.176517,19.323814",
  "-99.176455,19.323923",
  "-99.176414,19.324026",
  "-99.176379,19.324144",
  "-99.176338,19.324234",
  "-99.176291,19.324309",
  "-99.17617,19.32446",
  "-99.176082,19.324541",
  "-99.175968,19.324625",
  "-99.175862,19.324708",
  "-99.175618,19.324896",
  "-99.175516,19.324985",
  "-99.175478,19.325036",
  "-99.17541,19.325135",
  "-99.175188,19.325563",
  "-99.175136,19.325714",
  "-99.17513,19.325797",
  "-99.175115,19.326061",
  "-99.175113,19.326227",
  "-99.175133,19.326407",
  "-99.175186,19.326778",
  "-99.17527,19.327401",
  "-99.175309,19.327688",
  "-99.17531,19.327695",
  "-99.175425,19.328595",
  "-99.174876,19.328355",
  "-99.174924,19.32853",
  "-99.174953,19.328626",
  "-99.175463,19.328828",
  "-99.175505,19.328922",
  "-99.17566,19.329126",
  "-99.175947,19.329446",
  "-99.175996,19.329507",
  "-99.176034,19.329555",
  "-99.176094,19.329636",
  "-99.176159,19.329747",
  "-99.181258,19.330587",
  "-99.181113,19.330605",
  "-99.183842,19.330516",
  "-99.183516,19.330524",
  "-99.18322,19.330523",
  "-99.18312,19.330516",
  "-99.182968,19.3305",
  "-99.18292,19.330492",
  "-99.183364,19.330791",
  "-99.186116,19.330423",
  "-99.188104,19.330093",
  "-99.189026,19.334504",
  "-99.188779,19.334534",
  "-99.18843,19.334576",
  "-99.187829,19.334655",
  "-99.184648,19.335011",
  "-99.183216,19.335178",
  "-99.183062,19.335193",
  "-99.182905,19.335205",
  "-99.182862,19.335195",
  "-99.182583,19.335078",
  "-99.182473,19.335051",
  "-99.181972,19.334998",
  "-99.181743,19.33498",
  "-99.181609,19.334945",
  "-99.181535,19.334928",
  "-99.178402,19.332271",
  "-99.184475,19.330524",
  "-99.184409,19.330517",
  "-99.180423,19.326433",
  "-99.180281,19.32664",
  "-99.180101,19.326941",
  "-99.179734,19.327598",
  "-99.179533,19.327987",
  "-99.17925,19.32853",
  "-99.179082,19.328864",
  "-99.17901,19.329025",
  "-99.178951,19.329207",
  "-99.178883,19.329486",
  "-99.178844,19.329704",
  "-99.178794,19.329939",
  "-99.179528,19.334288",
  "-99.17929,19.334211",
  "-99.179114,19.334148",
  "-99.179008,19.334096",
  "-99.178967,19.334066",
  "-99.178926,19.334013",
  "-99.178894,19.333968",
  "-99.17886,19.333905",
  "-99.178803,19.333799",
  "-99.178776,19.333718",
  "-99.18124,19.329584",
  "-99.181297,19.329933",
  "-99.18287,19.327545",
  "-99.182695,19.327756",
  "-99.181301,19.329387",
  "-99.181263,19.329441",
  "-99.182169,19.328389",
  "-99.17879,19.325214",
  "-99.178456,19.32528",
  "-99.193005,19.321343",
  "-99.192965,19.321467",
  "-99.192889,19.321586",
  "-99.192636,19.322165",
  "-99.191503,19.324408",
  "-99.18689,19.322418",
  "-99.186782,19.322375",
  "-99.186591,19.322332",
  "-99.18651,19.322322",
  "-99.186335,19.322326",
  "-99.186223,19.322341",
  "-99.18613,19.32236",
  "-99.184606,19.322788",
  "-99.178326,19.332772",
  "-99.178288,19.332869",
  "-99.178247,19.332953",
  "-99.178203,19.333034",
  "-99.17826,19.333111",
  "-99.19322,19.333427",
  "-99.193179,19.333442",
  "-99.192714,19.333602",
  "-99.192512,19.333579",
  "-99.192346,19.33361",
  "-99.192185,19.333631",
  "-99.192019,19.333625",
  "-99.191722,19.333575",
  "-99.194556,19.332585",
  "-99.194531,19.332905",
  "-99.182608,19.330453",
  "-99.182537,19.330453",
  "-99.182257,19.330484",
  "-99.181711,19.330541",
  "-99.18307,19.330797",
  "-99.182531,19.330826",
  "-99.182097,19.33086",
  "-99.181942,19.330863",
  "-99.184702,19.330537",
  "-99.184896,19.334984",
  "-99.175432,19.328648",
  "-99.174983,19.32872",
  "-99.17505,19.328853",
  "-99.175169,19.32899",
  "-99.175193,19.329014",
  "-99.175146,19.326527",
  "-99.17512,19.324772",
  "-99.175089,19.32482",
  "-99.175052,19.32491",
  "-99.17495,19.325057",
  "-99.174732,19.325043",
  "-99.174703,19.326244",
  "-99.174695,19.326477",
  "-99.174721,19.326998",
  "-99.174766,19.327709",
  "-99.174771,19.327746",
  "-99.179169,19.328678",
  "-99.19458,19.333168",
  "-99.194448,19.333348",
  "-99.194158,19.333571",
  "-99.194075,19.333506",
  "-99.193971,19.333439",
  "-99.193801,19.333354",
  "-99.193595,19.333332",
  "-99.193441,19.333356",
  "-99.193316,19.333396",
  "-99.190135,19.324287",
  "-99.189885,19.3243",
  "-99.189679,19.324284",
  "-99.189663,19.324283",
  "-99.189565,19.32421",
  "-99.189547,19.324144",
  "-99.189545,19.324124",
  "-99.189507,19.324118",
  "-99.180799,19.334706",
  "-99.182976,19.323568",
  "-99.194584,19.33227",
  "-99.177979,19.32544",
  "-99.177887,19.325471",
  "-99.177818,19.325492",
  "-99.177721,19.325507",
  "-99.177516,19.325527",
  "-99.177424,19.325536",
  "-99.177337,19.325563",
  "-99.176866,19.330847",
  "-99.176958,19.330991",
  "-99.17711,19.323189",
  "-99.17525,19.325406",
  "-99.186903,19.322423",
  "-99.185876,19.322435",
  "-99.185398,19.322565",
  "-99.184901,19.322708",
  "-99.184312,19.322868",
  "-99.192454,19.323777",
  "-99.192093,19.32404",
  "-99.191814,19.324235",
  "-99.193345,19.321179",
  "-99.193218,19.321248",
  "-99.193132,19.321255",
  "-99.193081,19.321259",
  "-99.186761,19.330312",
  "-99.186611,19.330335",
  "-99.185645,19.330497",
  "-99.18535,19.330542",
  "-99.185017,19.330547",
  "-99.18036,19.334556",
  "-99.191599,19.323972",
  "-99.191458,19.324068",
  "-99.191348,19.324132",
  "-99.18146,19.33493",
  "-99.181342,19.334894",
  "-99.181053,19.334794",
  "-99.17582,19.329643",
  "-99.175908,19.329582",
  "-99.174799,19.327971",
  "-99.174853,19.32823",
  "-99.179843,19.330138",
  "-99.179811,19.330026",
  "-99.179708,19.329685",
  "-99.179685,19.329602",
  "-99.179678,19.329529",
  "-99.179702,19.329339",
  "-99.179711,19.329278",
  "-99.19035,19.33124",
  "-99.190408,19.331123",
  "-99.190524,19.330908",
  "-99.190721,19.330686",
  "-99.181053,19.327021",
  "-99.194762,19.330111",
  "-99.194744,19.330008",
  "-99.19474,19.329957",
  "-99.1948,19.329325",
  "-99.19483,19.328952",
  "-99.194834,19.328903",
  "-99.194843,19.328712",
  "-99.194848,19.32716",
  "-99.194846,19.32706",
  "-99.194864,19.326557",
  "-99.19108,19.334596",
  "-99.191139,19.334693",
  "-99.195416,19.33119",
  "-99.193151,19.329044",
  "-99.1933,19.329022",
  "-99.193416,19.328978",
  "-99.193504,19.328929",
  "-99.193619,19.328834",
  "-99.194317,19.328282",
  "-99.194381,19.328191",
  "-99.194412,19.32812",
  "-99.194436,19.32802",
  "-99.194464,19.327829",
  "-99.19449,19.3275",
  "-99.194489,19.327421",
  "-99.194462,19.327086",
  "-99.194907,19.324782",
  "-99.194318,19.325614",
  "-99.194284,19.325283",
  "-99.194262,19.325003",
  "-99.194249,19.324695",
  "-99.194243,19.32421",
  "-99.194257,19.32389",
  "-99.194269,19.32369",
  "-99.194307,19.323388",
  "-99.194347,19.322983",
  "-99.194952,19.32319",
  "-99.194948,19.323103",
  "-99.194922,19.322891",
  "-99.18704,19.323372",
  "-99.187158,19.323407",
  "-99.187229,19.323434",
  "-99.187283,19.323457",
  "-99.187331,19.323483",
  "-99.187413,19.323543",
  "-99.187464,19.323581",
  "-99.18753,19.323647",
  "-99.187578,19.323717",
  "-99.187625,19.3238",
  "-99.187652,19.323868",
  "-99.185632,19.324467",
  "-99.185676,19.324425",
  "-99.185721,19.324392",
  "-99.185781,19.324362",
  "-99.185851,19.324335",
  "-99.186016,19.324321",
  "-99.186109,19.324308",
  "-99.186165,19.324316",
  "-99.186228,19.324338",
  "-99.186286,19.32438",
  "-99.186332,19.324434",
  "-99.185142,19.323428",
  "-99.185402,19.323294",
  "-99.185535,19.323227",
  "-99.1856,19.323194",
  "-99.185683,19.323167",
  "-99.185783,19.323144",
  "-99.185852,19.323135",
  "-99.185918,19.323136",
  "-99.186011,19.32314",
  "-99.186088,19.323147",
  "-99.186152,19.323158",
  "-99.18624,19.323179",
  "-99.186316,19.323198",
  "-99.186363,19.323211",
  "-99.18667,19.323279",
  "-99.183361,19.324408",
  "-99.18343,19.324348",
  "-99.183546,19.324262",
  "-99.183659,19.324196",
  "-99.183781,19.324123",
  "-99.183916,19.324052",
  "-99.184516,19.323749",
  "-99.182982,19.324766",
  "-99.180081,19.328647",
  "-99.180817,19.330636",
  "-99.193142,19.334899",
  "-99.194169,19.334541",
  "-99.194269,19.334474",
  "-99.194322,19.334425",
  "-99.19448,19.334431",
  "-99.194519,19.334428",
  "-99.19472,19.334379",
  "-99.195522,19.334289",
  "-99.195541,19.334279",
  "-99.195641,19.334233",
  "-99.195764,19.334177",
  "-99.195905,19.334097",
  "-99.195979,19.334027",
  "-99.196174,19.333668",
  "-99.196233,19.333556",
  "-99.196283,19.333372",
  "-99.196387,19.333424",
  "-99.196483,19.333365",
  "-99.196452,19.333297",
  "-99.196425,19.333173",
  "-99.196422,19.333071",
  "-99.196407,19.332952",
  "-99.196384,19.332858",
  "-99.196325,19.33271",
  "-99.196262,19.332591",
  "-99.19619,19.332468",
  "-99.19608,19.332288",
  "-99.195976,19.332111",
  "-99.195926,19.332019",
  "-99.19533,19.331047",
  "-99.194973,19.330474",
  "-99.194875,19.330321",
  "-99.192134,19.329929",
  "-99.192145,19.329843",
  "-99.192361,19.329825",
  "-99.192558,19.329809",
  "-99.192597,19.329831",
  "-99.192601,19.330027",
  "-99.192622,19.330092",
  "-99.192679,19.330142",
  "-99.192995,19.330202",
  "-99.191087,19.330421",
  "-99.191199,19.330348",
  "-99.191311,19.330104",
  "-99.191552,19.329997",
  "-99.19166,19.329895",
  "-99.191823,19.329956",
  "-99.18042,19.33068",
  "-99.180288,19.330672",
  "-99.180185,19.33064",
  "-99.180119,19.330611",
  "-99.180038,19.330555",
  "-99.179958,19.330464",
  "-99.179923,19.330394",
  "-99.179891,19.330317",
  "-99.17987,19.330234",
  "-99.18146,19.326336",
  "-99.1816,19.326142",
  "-99.194969,19.33436",
  "-99.195201,19.334354",
  "-99.195323,19.334347",
  "-99.195455,19.334324",
  "-99.185511,19.324585",
  "-99.18179,19.325949",
  "-99.19125,19.334783",
  "-99.191311,19.334809",
  "-99.19139,19.334827",
  "-99.191743,19.334876",
  "-99.192014,19.334907",
  "-99.192154,19.334923",
  "-99.192532,19.334965",
  "-99.19274,19.334975",
  "-99.19283,19.334967",
  "-99.192906,19.334961",
  "-99.192959,19.334958"
]