{
  "-99.194912,19.3245": "Pumabús  Pumitas",
  "-99.19457,19.332587": "Pumabús E-3",
  "-99.186888,19.322426": "Pumabús Educación a Distancia",
  "-99.175416,19.328595": "Pumabús Veterinaria",
  "-99.194399,19.326406": "Pumabús Pista de Calentamiento Ote.",
  "-99.181048,19.327018": "Pumabús Posgrado de Ingeniería",
  "-99.185707,19.33611": "Pumabús Avenida Universidad",
  "-99.189386,19.33277": "Pumabús Rectoría",
  "-99.183063,19.335206": "Pumabús Economía Sur",
  "-99.181783,19.32492": "Pumabús Ciencias, paradero Circuito Exterior",
  "-99.186318,19.314477": "Pumabús Centro Cultural",
  "-99.180751,19.330875": "Pumabús Químca",
  "-99.188106,19.330108": "Pumabús Servicios Médicos",
  "-99.180039,19.313968": "Pumabús Investigaciones Filológicas",
  "-99.185641,19.311567": "Pumabús Posgrado de Economía",
  "-99.174967,19.328623": "Pumabús CENDI",
  "-99.184782,19.311989": "Pumabís Teatro y Danza",
  "-99.187976,19.323746": "Pumabús Metrobús CU 1",
  "-99.180022,19.308083": "Pumabús Avenida del Imán",
  "-99.18973,19.323114": "Pumabús Investigaciones Biomédicas",
  "-99.180412,19.316876": "Pumabús Investigaciones Jurídicas Sur",
  "-99.174867,19.3241": "Pumabús Metro CU 1",
  "-99.181033,19.314079": "Pumabús Investigaciones Filosóficas",
  "-99.183552,19.317299": "Pumabús Espacio Escultórico",
  "-99.176481,19.32058": "Pumabús Tienda UNAM",
  "-99.180362,19.309755": "Pumabús Archivo General",
  "-99.176924,19.32337": "Pumabús Química Conjunto D y E",
  "-99.180793,19.334728": "Pumabús Odontología Sur",
  "-99.186367,19.315451": "Pumabús Biblioteca Nacional, Hemeroteca Nacional Pte.",
  "-99.179132,19.322613": "Pumabús Ciencias por Circuito de la Investigación Nte.",
  "-99.176256,19.317597": "Pumabús TV UNAM",
  "-99.179882,19.328978": "Pumabús Invernadero",
  "-99.188098,19.326791": "Pumabús Estadio de Prácticas",
  "-99.181544,19.314137": "Pumabús Coordinacion de Humanidades",
  "-99.17842,19.332274": "Pumabús Psiquiatría",
  "-99.176335,19.322127": "Pumabús Tienda UNAM, parada exclusiva Ruta 12",
  "-99.176425,19.317801": "Pumabús Ciencias Políticas",
  "-99.187713,19.324156": "Pumabús Metrobús CU Ote.",
  "-99.182164,19.310821": "Pumabús Personal Académico",
  "-99.194863,19.326432": "Pumabús Pista de Calentamiento Pte.",
  "-99.18745,19.334927": "Pumabús Filosofía y Letras Nte.",
  "-99.184552,19.330747": "Pumabús Ingeniería Nte.",
  "-99.192426,19.329159": "Pumabús  E-7",
  "-99.192999,19.335016": "Pumabús Obras y Construcción",
  "-99.17775,19.327583": "Pumabús Investigación Científica",
  "-99.18269,19.330469": "Pumabús Frontones",
  "-99.183364,19.330781": "Pumabús CELE",
  "-99.183599,19.335796": "Pumabús Economía Nte.",
  "-99.18484,19.323589": "Pumabús Contaduría",
  "-99.180642,19.31721": "Pumabús Investigaciones Jurídicas Nte.",
  "-99.184699,19.330548": "Pumabús Ingeniería Sur",
  "-99.189139,19.334499": "Pumabús  Psicología",
  "-99.182057,19.311514": "Pumabús Universum",
  "-99.192369,19.322747": "Pumabús Campos de Futbol II",
  "-99.179255,19.328533": "Pumabús Ciencias del Mar",
  "-99.190561,19.33004": "Pumabús E-8",
  "-99.185953,19.314459": "Pumabús MUAC",
  "-99.189065,19.330167": "Pumabús MUCA",
  "-99.186315,19.33043": "Pumabús Alberca Olímpica",
  "-99.175247,19.324771": "Pumabús Metro Universidad Pte.",
  "-99.195409,19.331194": "Pumabús UDUAL",
  "-99.179176,19.322244": "Pumabús Ciencias por Circuito de la Investigación Sur",
  "-99.193225,19.333434": "Pumabús E-2",
  "-99.193397,19.330319": "Pumabús E-6",
  "-99.17849,19.326661": "Pumabús Instituto de Astronomía",
  "-99.189429,19.324191": "Pumabús Metrobús CU Ote.",
  "-99.195526,19.334296": "Pumabús AAPAUNAM",
  "-99.184608,19.322797": "Pumabús Cómputo Académico",
  "-99.182047,19.325689": "Pumabús Camino Verde",
  "-99.184896,19.334995": "Pumabús Derecho Sur",
  "-99.186862,19.330561": "Pumabús Arquitectura",
  "-99.18611,19.315804": "Pumabús Biblioteca Nacional, Hemeroteca Nacional Ote.",
  "-99.191499,19.324402": "Pumabús Campos de Futbol I",
  "-99.184938,19.311794": "Pumabús Revalidación de Estudios",
  "-99.180817,19.334858": "Pumabús Odontología Nte.",
  "-99.17881,19.33298": "Pumabús Medicina",
  "-99.180818,19.330643": "Pumabús IIMAS",
  "-99.185901,19.30928": "Pumabús Unidad de Posgrado",
  "-99.178273,19.327488": "Pumabús Instituto de Química",
  "-99.190708,19.333491": "Pumabús E-1",
  "-99.191136,19.334245": "Pumabús Relaciones Laborales",
  "-99.18783,19.334667": "Pumabús Filosofía y Letras Sur",
  "-99.175124,19.326407": "Pumabús Instituto de Geofísica",
  "-99.184746,19.335364": "Pumabús Derecho Nte.",
  "-99.193029,19.321354": "Pumabús Jardín Botánico",
  "-99.194158,19.331285": "Pumabús E-4",
  "-99.18672,19.323291": "Pumabús Trabajo Social"
}